EESchema Schematic File Version 4
EELAYER 30 0
EELAYER END
$Descr USLetter 11000 8500
encoding utf-8
Sheet 1 1
Title "Driver board"
Date "2020-09-18"
Rev "0.1"
Comp ""
Comment1 ""
Comment2 ""
Comment3 ""
Comment4 ""
$EndDescr
$Comp
L MCU_Microchip_ATmega:ATmega328P-AU U4
U 1 1 5F653161
P 1300 4100
F 0 "U4" H 1200 4350 50  0000 C CNN
F 1 "ATmega328P-AU" H 1200 4250 50  0000 C CNN
F 2 "Housings_QFP:TQFP-32_7x7mm_Pitch0.8mm" H 1300 4100 50  0001 C CIN
F 3 "http://ww1.microchip.com/downloads/en/DeviceDoc/ATmega328_P%20AVR%20MCU%20with%20picoPower%20Technology%20Data%20Sheet%2040001984A.pdf" H 1300 4100 50  0001 C CNN
F 4 "ATMEGA328P-AU" H 1200 4450 50  0001 C CNN "MPN"
	1    1300 4100
	1    0    0    -1  
$EndComp
$Comp
L Connector_Generic:Conn_01x01 J4
U 1 1 5F656EF7
P 4850 1050
F 0 "J4" H 4930 1046 50  0000 L CNN
F 1 "Conn_01x01" H 4930 1001 50  0001 L CNN
F 2 "Connect:1pin" H 4850 1050 50  0001 C CNN
F 3 "~" H 4850 1050 50  0001 C CNN
	1    4850 1050
	1    0    0    -1  
$EndComp
$Comp
L Connector_Generic:Conn_01x01 J5
U 1 1 5F657E7F
P 4850 1200
F 0 "J5" H 4930 1196 50  0000 L CNN
F 1 "Conn_01x01" H 4930 1151 50  0001 L CNN
F 2 "Connect:1pin" H 4850 1200 50  0001 C CNN
F 3 "~" H 4850 1200 50  0001 C CNN
	1    4850 1200
	1    0    0    -1  
$EndComp
$Comp
L Connector_Generic:Conn_01x01 J6
U 1 1 5F658075
P 4850 1350
F 0 "J6" H 4930 1346 50  0000 L CNN
F 1 "Conn_01x01" H 4930 1301 50  0001 L CNN
F 2 "Connect:1pin" H 4850 1350 50  0001 C CNN
F 3 "~" H 4850 1350 50  0001 C CNN
	1    4850 1350
	1    0    0    -1  
$EndComp
$Comp
L Connector_Generic:Conn_01x01 J7
U 1 1 5F6581B9
P 4850 1500
F 0 "J7" H 4930 1496 50  0000 L CNN
F 1 "Conn_01x01" H 4930 1451 50  0001 L CNN
F 2 "Connect:1pin" H 4850 1500 50  0001 C CNN
F 3 "~" H 4850 1500 50  0001 C CNN
	1    4850 1500
	1    0    0    -1  
$EndComp
$Comp
L power:GND #PWR016
U 1 1 5F65A7D8
P 4650 1550
F 0 "#PWR016" H 4650 1300 50  0001 C CNN
F 1 "GND" H 4655 1377 50  0000 C CNN
F 2 "" H 4650 1550 50  0001 C CNN
F 3 "" H 4650 1550 50  0001 C CNN
	1    4650 1550
	1    0    0    -1  
$EndComp
$Comp
L power:GND #PWR011
U 1 1 5F65BA39
P 3800 1550
F 0 "#PWR011" H 3800 1300 50  0001 C CNN
F 1 "GND" H 3800 1400 50  0000 C CNN
F 2 "" H 3800 1550 50  0001 C CNN
F 3 "" H 3800 1550 50  0001 C CNN
	1    3800 1550
	1    0    0    -1  
$EndComp
$Comp
L Device:LED_Small D2
U 1 1 5F65C7FD
P 3800 1450
F 0 "D2" V 3846 1380 50  0000 R CNN
F 1 "+3.3V" V 3750 1400 50  0000 R CNN
F 2 "LEDs:LED_0805" V 3800 1450 50  0001 C CNN
F 3 "~" V 3800 1450 50  0001 C CNN
F 4 "150080BS75000" H 3846 1480 50  0001 C CNN "MPN"
	1    3800 1450
	0    -1   -1   0   
$EndComp
$Comp
L Device:R_Small R2
U 1 1 5F65D648
P 3800 1250
F 0 "R2" H 3859 1296 50  0000 L CNN
F 1 "1k" H 3859 1205 50  0000 L CNN
F 2 "Resistors_SMD:R_0805" H 3800 1250 50  0001 C CNN
F 3 "~" H 3800 1250 50  0001 C CNN
F 4 "RC0805FR-071KL" H 3859 1396 50  0001 C CNN "MPN"
	1    3800 1250
	1    0    0    -1  
$EndComp
$Comp
L Connector_Generic:Conn_02x03_Odd_Even J8
U 1 1 5F65FA9C
P 6550 1100
F 0 "J8" H 6600 1417 50  0000 C CNN
F 1 "ISP" H 6600 1326 50  0000 C CNN
F 2 "Pin_Headers:Pin_Header_Straight_2x03_Pitch2.54mm" H 6550 1100 50  0001 C CNN
F 3 "~" H 6550 1100 50  0001 C CNN
	1    6550 1100
	1    0    0    -1  
$EndComp
$Comp
L power:GND #PWR018
U 1 1 5F662FD5
P 6850 1200
F 0 "#PWR018" H 6850 950 50  0001 C CNN
F 1 "GND" H 6850 1050 50  0000 C CNN
F 2 "" H 6850 1200 50  0001 C CNN
F 3 "" H 6850 1200 50  0001 C CNN
	1    6850 1200
	1    0    0    -1  
$EndComp
$Comp
L Device:C_Small C1
U 1 1 5F6660A6
P 1100 2450
F 0 "C1" H 900 2450 50  0000 L CNN
F 1 "0.1uF" H 800 2350 50  0000 L CNN
F 2 "Capacitors_SMD:C_0805" H 1100 2450 50  0001 C CNN
F 3 "~" H 1100 2450 50  0001 C CNN
F 4 "CL21B104KBCSFNC" H 900 2550 50  0001 C CNN "MPN"
	1    1100 2450
	1    0    0    -1  
$EndComp
$Comp
L Device:C_Small C6
U 1 1 5F6668A1
P 1550 2450
F 0 "C6" H 1642 2496 50  0000 L CNN
F 1 "0.1uF" H 1642 2405 50  0000 L CNN
F 2 "Capacitors_SMD:C_0805" H 1550 2450 50  0001 C CNN
F 3 "~" H 1550 2450 50  0001 C CNN
F 4 "CL21B104KBCSFNC" H 1642 2596 50  0001 C CNN "MPN"
	1    1550 2450
	1    0    0    -1  
$EndComp
$Comp
L power:GND #PWR020
U 1 1 5F666B85
P 1100 2550
F 0 "#PWR020" H 1100 2300 50  0001 C CNN
F 1 "GND" H 1100 2150 50  0000 C CNN
F 2 "" H 1100 2550 50  0001 C CNN
F 3 "" H 1100 2550 50  0001 C CNN
	1    1100 2550
	1    0    0    -1  
$EndComp
$Comp
L power:GND #PWR022
U 1 1 5F668320
P 1550 2550
F 0 "#PWR022" H 1550 2300 50  0001 C CNN
F 1 "GND" H 1550 2150 50  0000 C CNN
F 2 "" H 1550 2550 50  0001 C CNN
F 3 "" H 1550 2550 50  0001 C CNN
	1    1550 2550
	1    0    0    -1  
$EndComp
$Comp
L power:GND #PWR021
U 1 1 5F66B814
P 1300 5600
F 0 "#PWR021" H 1300 5350 50  0001 C CNN
F 1 "GND" H 1300 5400 50  0000 C CNN
F 2 "" H 1300 5600 50  0001 C CNN
F 3 "" H 1300 5600 50  0001 C CNN
	1    1300 5600
	1    0    0    -1  
$EndComp
$Comp
L power:+3.3V #PWR019
U 1 1 5F65D73E
P 1100 2350
F 0 "#PWR019" H 1100 2200 50  0001 C CNN
F 1 "+3.3V" H 1115 2523 50  0000 C CNN
F 2 "" H 1100 2350 50  0001 C CNN
F 3 "" H 1100 2350 50  0001 C CNN
	1    1100 2350
	1    0    0    -1  
$EndComp
$Comp
L power:+3.3V #PWR017
U 1 1 5F66B920
P 6850 1000
F 0 "#PWR017" H 6850 850 50  0001 C CNN
F 1 "+3.3V" H 6865 1173 50  0000 C CNN
F 2 "" H 6850 1000 50  0001 C CNN
F 3 "" H 6850 1000 50  0001 C CNN
	1    6850 1000
	1    0    0    -1  
$EndComp
$Comp
L Connector_Generic:Conn_01x05 J1
U 1 1 5F684C3E
P 950 1300
F 0 "J1" H 950 1700 50  0000 C CNN
F 1 "COM/POWER" H 950 1600 50  0000 C CNN
F 2 "Pin_Headers:Pin_Header_Straight_1x05_Pitch2.00mm" H 950 1300 50  0001 C CNN
F 3 "~" H 950 1300 50  0001 C CNN
F 4 "S5B-PH-K-S(LF)(SN)" H 950 1300 50  0001 C CNN "Mfg_Part_No"
	1    950  1300
	-1   0    0    -1  
$EndComp
$Comp
L power:+12V #PWR04
U 1 1 5F685F5E
P 1450 1100
F 0 "#PWR04" H 1450 950 50  0001 C CNN
F 1 "+12V" H 1465 1273 50  0000 C CNN
F 2 "" H 1450 1100 50  0001 C CNN
F 3 "" H 1450 1100 50  0001 C CNN
	1    1450 1100
	1    0    0    -1  
$EndComp
$Comp
L power:+3.3V #PWR05
U 1 1 5F68723B
P 1600 1200
F 0 "#PWR05" H 1600 1050 50  0001 C CNN
F 1 "+3.3V" H 1615 1373 50  0000 C CNN
F 2 "" H 1600 1200 50  0001 C CNN
F 3 "" H 1600 1200 50  0001 C CNN
	1    1600 1200
	1    0    0    -1  
$EndComp
$Comp
L power:GND #PWR01
U 1 1 5F68823B
P 1150 1500
F 0 "#PWR01" H 1150 1250 50  0001 C CNN
F 1 "GND" H 1155 1327 50  0000 C CNN
F 2 "" H 1150 1500 50  0001 C CNN
F 3 "" H 1150 1500 50  0001 C CNN
	1    1150 1500
	1    0    0    -1  
$EndComp
$Comp
L power:+3.3V #PWR010
U 1 1 5F68C5BA
P 3800 1150
F 0 "#PWR010" H 3800 1000 50  0001 C CNN
F 1 "+3.3V" H 3815 1323 50  0000 C CNN
F 2 "" H 3800 1150 50  0001 C CNN
F 3 "" H 3800 1150 50  0001 C CNN
	1    3800 1150
	1    0    0    -1  
$EndComp
$Comp
L power:GND #PWR09
U 1 1 5F68D16D
P 2650 1550
F 0 "#PWR09" H 2650 1300 50  0001 C CNN
F 1 "GND" H 2650 1400 50  0000 C CNN
F 2 "" H 2650 1550 50  0001 C CNN
F 3 "" H 2650 1550 50  0001 C CNN
	1    2650 1550
	1    0    0    -1  
$EndComp
$Comp
L Device:LED_Small D1
U 1 1 5F68D178
P 2650 1450
F 0 "D1" V 2696 1380 50  0000 R CNN
F 1 "+12V" V 2605 1380 50  0000 R CNN
F 2 "LEDs:LED_0805" V 2650 1450 50  0001 C CNN
F 3 "~" V 2650 1450 50  0001 C CNN
F 4 "150080BS75000" H 2696 1480 50  0001 C CNN "MPN"
	1    2650 1450
	0    -1   -1   0   
$EndComp
$Comp
L Device:R_Small R1
U 1 1 5F68D182
P 2650 1250
F 0 "R1" H 2709 1296 50  0000 L CNN
F 1 "2k" H 2709 1205 50  0000 L CNN
F 2 "Resistors_SMD:R_0805" H 2650 1250 50  0001 C CNN
F 3 "~" H 2650 1250 50  0001 C CNN
F 4 "RC0805FR-072KL" H 2709 1396 50  0001 C CNN "MPN"
	1    2650 1250
	1    0    0    -1  
$EndComp
$Comp
L power:+12V #PWR08
U 1 1 5F68DC3E
P 2650 1150
F 0 "#PWR08" H 2650 1000 50  0001 C CNN
F 1 "+12V" H 2665 1323 50  0000 C CNN
F 2 "" H 2650 1150 50  0001 C CNN
F 3 "" H 2650 1150 50  0001 C CNN
	1    2650 1150
	1    0    0    -1  
$EndComp
$Comp
L power:+12V #PWR012
U 1 1 5F695832
P 3700 2750
F 0 "#PWR012" H 3700 2600 50  0001 C CNN
F 1 "+12V" H 3715 2923 50  0000 C CNN
F 2 "" H 3700 2750 50  0001 C CNN
F 3 "" H 3700 2750 50  0001 C CNN
	1    3700 2750
	1    0    0    -1  
$EndComp
$Comp
L power:+12V #PWR013
U 1 1 5F69717D
P 3700 5100
F 0 "#PWR013" H 3700 4950 50  0001 C CNN
F 1 "+12V" H 3715 5273 50  0000 C CNN
F 2 "" H 3700 5100 50  0001 C CNN
F 3 "" H 3700 5100 50  0001 C CNN
	1    3700 5100
	1    0    0    -1  
$EndComp
$Comp
L Connector_Generic:Conn_01x08 J3
U 1 1 5F6C0249
P 5850 4300
F 0 "J3" H 5850 4800 50  0000 C CNN
F 1 "OUTPUTS B" H 5700 4700 50  0000 C CNN
F 2 "Pin_Headers:Pin_Header_Straight_1x08_Pitch2.00mm" H 5850 4300 50  0001 C CNN
F 3 "~" H 5850 4300 50  0001 C CNN
F 4 "S8B-PH-K-S(LF)(SN)" H 5850 4300 50  0001 C CNN "Mfg_Part_No"
	1    5850 4300
	-1   0    0    -1  
$EndComp
$Comp
L power:GND #PWR07
U 1 1 5F6C0257
P 6500 4700
F 0 "#PWR07" H 6500 4450 50  0001 C CNN
F 1 "GND" H 6505 4527 50  0000 C CNN
F 2 "" H 6500 4700 50  0001 C CNN
F 3 "" H 6500 4700 50  0001 C CNN
	1    6500 4700
	1    0    0    -1  
$EndComp
$Comp
L Device:C_Small C3
U 1 1 5F6D16F1
P 2450 1250
F 0 "C3" H 2400 1450 50  0000 L CNN
F 1 "0.1uF" V 2400 1000 50  0000 L CNN
F 2 "Capacitors_SMD:C_0805" H 2450 1250 50  0001 C CNN
F 3 "~" H 2450 1250 50  0001 C CNN
F 4 "CL21B104KBCSFNC" H 2400 1550 50  0001 C CNN "MPN"
	1    2450 1250
	1    0    0    -1  
$EndComp
$Comp
L Device:C_Small C2
U 1 1 5F6D5146
P 2250 1250
F 0 "C2" H 2200 1450 50  0000 L CNN
F 1 "33uF" V 2200 950 50  0000 L CNN
F 2 "footprints:SM2917" H 2250 1250 50  0001 C CNN
F 3 "~" H 2250 1250 50  0001 C CNN
F 4 "T491D336K020AT" H 2200 1550 50  0001 C CNN "MPN"
	1    2250 1250
	1    0    0    -1  
$EndComp
$Comp
L Device:C_Small C5
U 1 1 5F6DDA12
P 3600 1250
F 0 "C5" H 3550 1450 50  0000 L CNN
F 1 "0.1uF" V 3550 1000 50  0000 L CNN
F 2 "Capacitors_SMD:C_0805" H 3600 1250 50  0001 C CNN
F 3 "~" H 3600 1250 50  0001 C CNN
F 4 "CL21B104KBCSFNC" H 3550 1550 50  0001 C CNN "MPN"
	1    3600 1250
	1    0    0    -1  
$EndComp
$Comp
L Device:C_Small C4
U 1 1 5F6DDA1D
P 3400 1250
F 0 "C4" H 3350 1450 50  0000 L CNN
F 1 "33uF" V 3350 950 50  0000 L CNN
F 2 "footprints:SM2917" H 3400 1250 50  0001 C CNN
F 3 "~" H 3400 1250 50  0001 C CNN
F 4 "T491D336K020AT" H 3350 1550 50  0001 C CNN "MPN"
	1    3400 1250
	1    0    0    -1  
$EndComp
$Comp
L power:GND #PWR06
U 1 1 5F6B7D67
P 6500 3400
F 0 "#PWR06" H 6500 3150 50  0001 C CNN
F 1 "GND" H 6505 3227 50  0000 C CNN
F 2 "" H 6500 3400 50  0001 C CNN
F 3 "" H 6500 3400 50  0001 C CNN
	1    6500 3400
	1    0    0    -1  
$EndComp
$Comp
L Connector_Generic:Conn_01x08 J2
U 1 1 5F6A3CA0
P 5850 3000
F 0 "J2" H 5850 3500 50  0000 C CNN
F 1 "OUTPUTS A" H 5700 3400 50  0000 C CNN
F 2 "Pin_Headers:Pin_Header_Straight_1x08_Pitch2.00mm" H 5850 3000 50  0001 C CNN
F 3 "~" H 5850 3000 50  0001 C CNN
F 4 "S8B-PH-K-S(LF)(SN)" H 5850 3000 50  0001 C CNN "Mfg_Part_No"
	1    5850 3000
	-1   0    0    -1  
$EndComp
Text Notes 800  800  0    60   ~ 0
COMMUNICATION/POWER
Text GLabel 1900 4900 2    60   Input ~ 0
D3
Text GLabel 1900 4400 2    60   Input ~ 0
RST
Text GLabel 1900 4700 2    60   Input ~ 0
D1-TX
Text GLabel 6350 1200 0    60   Input ~ 0
RST
Text Notes 6000 850  0    60   ~ 0
ISP
Text GLabel 1900 4300 2    60   Input ~ 0
A5-SCL
Text GLabel 1900 4200 2    60   Input ~ 0
A4-SDA
Text GLabel 1900 5300 2    60   Input ~ 0
D7
Text GLabel 6850 1100 2    60   Input ~ 0
D11-COPI
Text GLabel 6350 1000 0    60   Input ~ 0
D12-CIPO
Text GLabel 6350 1100 0    60   Input ~ 0
D13-SCK
Text GLabel 1900 3200 2    60   Input ~ 0
D11-COPI
Text GLabel 1900 3300 2    60   Input ~ 0
D12-CIPO
Text GLabel 1900 3000 2    60   Input ~ 0
D9
Text GLabel 1900 3100 2    60   Input ~ 0
D10-OE
Text GLabel 1900 3400 2    60   Input ~ 0
D13-SCK
Text Notes 4600 850  0    60   ~ 0
MOUNTING HOLES
Text GLabel 1900 2900 2    60   Input ~ 0
D8
Text GLabel 1150 1400 2    60   Input ~ 0
A5-SCL
Text GLabel 1150 1300 2    60   Input ~ 0
A4-SDA
Text GLabel 6050 4000 2    60   Input ~ 0
OUT5
Text GLabel 6050 4200 2    60   Input ~ 0
OUT6
Text GLabel 6050 4400 2    60   Input ~ 0
OUT7
Text GLabel 6050 4600 2    60   Input ~ 0
OUT8
Text GLabel 4550 3150 2    60   Input ~ 0
OUT1
Text GLabel 4550 3350 2    60   Input ~ 0
OUT2
Text GLabel 4550 3750 2    60   Input ~ 0
OUT3
Text GLabel 4550 3950 2    60   Input ~ 0
OUT4
Text GLabel 4550 5500 2    60   Input ~ 0
OUT5
Text GLabel 4550 5700 2    60   Input ~ 0
OUT6
Text GLabel 4550 6100 2    60   Input ~ 0
OUT7
Text GLabel 4550 6300 2    60   Input ~ 0
OUT8
Text GLabel 1900 4600 2    60   Input ~ 0
D0-RX
Text GLabel 1900 4800 2    60   Input ~ 0
D2
Text GLabel 1900 5000 2    60   Input ~ 0
D4
Text GLabel 1900 5100 2    60   Input ~ 0
D5
Text GLabel 1900 5200 2    60   Input ~ 0
D6
Text GLabel 3550 3550 0    60   Input ~ 0
D10-OE
Text GLabel 3550 5900 0    60   Input ~ 0
D10-OE
Text GLabel 3550 4150 0    60   Input ~ 0
D10-OE
Text GLabel 3550 6500 0    60   Input ~ 0
D10-OE
Text GLabel 6050 3300 2    60   Input ~ 0
OUT4
Text GLabel 6050 3100 2    60   Input ~ 0
OUT3
Text GLabel 6050 2900 2    60   Input ~ 0
OUT2
Text GLabel 6050 2700 2    60   Input ~ 0
OUT1
Wire Wire Line
	4650 1050 4650 1200
Wire Wire Line
	4650 1200 4650 1350
Wire Wire Line
	4650 1350 4650 1500
Wire Wire Line
	4650 1500 4650 1550
Wire Wire Line
	1100 2350 1300 2350
Wire Wire Line
	1300 2350 1300 2600
Wire Wire Line
	1300 2350 1400 2350
Wire Wire Line
	1400 2600 1400 2350
Wire Wire Line
	1400 2350 1550 2350
Wire Wire Line
	1150 1100 1450 1100
Wire Wire Line
	1150 1200 1600 1200
Wire Wire Line
	6050 4700 6500 4700
Wire Wire Line
	6500 4500 6500 4700
Wire Wire Line
	6050 4300 6500 4300
Wire Wire Line
	6500 4300 6500 4500
Wire Wire Line
	6050 4100 6500 4100
Wire Wire Line
	6500 4100 6500 4300
Wire Wire Line
	6050 4500 6500 4500
Wire Wire Line
	2450 1150 2650 1150
Wire Wire Line
	2450 1350 2450 1550
Wire Wire Line
	2450 1550 2650 1550
Wire Wire Line
	2250 1150 2450 1150
Wire Wire Line
	2250 1550 2450 1550
Wire Wire Line
	2250 1350 2250 1550
Wire Wire Line
	3600 1150 3800 1150
Wire Wire Line
	3600 1350 3600 1550
Wire Wire Line
	3600 1550 3800 1550
Wire Wire Line
	3400 1150 3600 1150
Wire Wire Line
	3400 1550 3600 1550
Wire Wire Line
	3400 1350 3400 1550
Wire Wire Line
	1900 4800 2700 4800
Wire Wire Line
	2700 4800 2700 3150
Wire Wire Line
	2700 3150 3550 3150
Wire Wire Line
	1900 4900 2800 4900
Wire Wire Line
	2800 4900 2800 3350
Wire Wire Line
	2800 3350 3550 3350
Wire Wire Line
	1900 5000 2900 5000
Wire Wire Line
	2900 5000 2900 3750
Wire Wire Line
	2900 3750 3550 3750
Wire Wire Line
	1900 5100 3000 5100
Wire Wire Line
	3000 5100 3000 3950
Wire Wire Line
	3000 3950 3550 3950
Wire Wire Line
	1900 5200 3050 5200
Wire Wire Line
	3050 5200 3050 5500
Wire Wire Line
	3050 5500 3550 5500
Wire Wire Line
	1900 5300 3000 5300
Wire Wire Line
	3000 5300 3000 5700
Wire Wire Line
	3000 5700 3550 5700
Wire Wire Line
	1900 2900 2600 2900
Wire Wire Line
	2600 2900 2600 6100
Wire Wire Line
	2600 6100 3550 6100
Wire Wire Line
	1900 3000 2500 3000
Wire Wire Line
	2500 3000 2500 6300
Wire Wire Line
	2500 6300 3550 6300
Wire Wire Line
	6050 3200 6500 3200
Wire Wire Line
	6500 2800 6500 3000
Wire Wire Line
	6050 2800 6500 2800
Wire Wire Line
	6500 3000 6500 3200
Wire Wire Line
	6050 3000 6500 3000
Wire Wire Line
	6500 3200 6500 3400
Wire Wire Line
	6050 3400 6500 3400
Connection ~ 4650 1200
Connection ~ 4650 1350
Connection ~ 4650 1500
Connection ~ 1300 2350
Connection ~ 1400 2350
Connection ~ 1100 2350
Connection ~ 6500 4700
Connection ~ 6500 4500
Connection ~ 6500 4300
Connection ~ 2650 1550
Connection ~ 2450 1150
Connection ~ 2450 1550
Connection ~ 2650 1150
Connection ~ 3600 1150
Connection ~ 3600 1550
Connection ~ 3800 1150
Connection ~ 3800 1550
Connection ~ 6500 3000
Connection ~ 6500 3200
Connection ~ 6500 3400
NoConn ~ 1900 3500
NoConn ~ 1900 3600
NoConn ~ 700  2900
NoConn ~ 700  3100
NoConn ~ 700  3200
NoConn ~ 1900 3800
NoConn ~ 1900 3900
NoConn ~ 1900 4000
NoConn ~ 1900 4100
$Comp
L power:GND #PWR015
U 1 1 5F69A7A5
P 3650 6900
F 0 "#PWR015" H 3650 6650 50  0001 C CNN
F 1 "GND" H 3650 6750 50  0000 C CNN
F 2 "" H 3650 6900 50  0001 C CNN
F 3 "" H 3650 6900 50  0001 C CNN
	1    3650 6900
	1    0    0    -1  
$EndComp
$Comp
L power:GND #PWR014
U 1 1 5F698B9B
P 3650 4550
F 0 "#PWR014" H 3650 4300 50  0001 C CNN
F 1 "GND" H 3650 4400 50  0000 C CNN
F 2 "" H 3650 4550 50  0001 C CNN
F 3 "" H 3650 4550 50  0001 C CNN
	1    3650 4550
	1    0    0    -1  
$EndComp
$Comp
L l293dd:L293DD U2
U 1 1 5FB65067
P 4050 3750
F 0 "U2" H 4050 4931 50  0000 C CNN
F 1 "L293DD" H 4050 4840 50  0000 C CNN
F 2 "Housings_SOIC:SOIC-20W_7.5x12.8mm_Pitch1.27mm" H 4300 3000 50  0001 L CNN
F 3 "https://www.st.com/content/ccc/resource/technical/document/datasheet/04/ac/22/f9/20/5d/43/a1/CD00000059.pdf/files/CD00000059.pdf/jcr:content/translations/en.CD00000059.pdf" H 3750 4450 50  0001 C CNN
F 4 "L293DD" H 4050 3750 50  0001 C CNN "Mfg_Part_No"
	1    4050 3750
	1    0    0    -1  
$EndComp
$Comp
L l293dd:L293DD U3
U 1 1 5FB65ED9
P 4050 6100
F 0 "U3" H 4050 7281 50  0000 C CNN
F 1 "L293DD" H 4050 7190 50  0000 C CNN
F 2 "Housings_SOIC:SOIC-20W_7.5x12.8mm_Pitch1.27mm" H 4300 5350 50  0001 L CNN
F 3 "https://www.st.com/content/ccc/resource/technical/document/datasheet/04/ac/22/f9/20/5d/43/a1/CD00000059.pdf/files/CD00000059.pdf/jcr:content/translations/en.CD00000059.pdf" H 3750 6800 50  0001 C CNN
F 4 "L293DD" H 4050 6100 50  0001 C CNN "Mfg_Part_No"
	1    4050 6100
	1    0    0    -1  
$EndComp
Wire Wire Line
	3650 4550 3750 4550
Connection ~ 3650 4550
Wire Wire Line
	3750 4550 3850 4550
Connection ~ 3750 4550
Wire Wire Line
	3850 4550 3950 4550
Connection ~ 3850 4550
Wire Wire Line
	3950 4550 4150 4550
Connection ~ 3950 4550
Wire Wire Line
	4150 4550 4250 4550
Connection ~ 4150 4550
Wire Wire Line
	4250 4550 4350 4550
Connection ~ 4250 4550
Wire Wire Line
	4350 4550 4450 4550
Connection ~ 4350 4550
Wire Wire Line
	3650 6900 3750 6900
Connection ~ 3650 6900
Wire Wire Line
	3750 6900 3850 6900
Connection ~ 3750 6900
Wire Wire Line
	3850 6900 3950 6900
Connection ~ 3850 6900
Wire Wire Line
	3950 6900 4150 6900
Connection ~ 3950 6900
Wire Wire Line
	4150 6900 4250 6900
Connection ~ 4150 6900
Wire Wire Line
	4250 6900 4350 6900
Connection ~ 4250 6900
Wire Wire Line
	4350 6900 4450 6900
Connection ~ 4350 6900
Wire Wire Line
	3700 5100 3950 5100
Wire Wire Line
	3950 5100 4150 5100
Connection ~ 3950 5100
Wire Wire Line
	3700 2750 3950 2750
Wire Wire Line
	4150 2750 3950 2750
Connection ~ 3950 2750
$EndSCHEMATC
